{"hash":"8dffa5455174f7fa2b721d088571534151a5fa46","data":{"posts":{"totalCount":93,"pageInfo":{"totalPages":5,"currentPage":5,"isFirst":false,"isLast":true},"edges":[{"node":{"title":"Game Masters: Video Games in Museums","path":"/blog/2013/01/31/game-masters-video-games-in-museums/","excerpt":"<p>Game Masters is an exhibit that is coming off a showing at the Australian Centre for the Moving Image and is now located at The Museum of New Zealand Te Papa for a five month showing. It is promoted as an artistic look at the world of video games, promising to \"[take] you into a spectacular gaming universe where imagination and technology combine\". It's intriguing to wonder how an exhibition dedicated to video games is presented. Is it just a glorified arcade, or something going deeper into the history and legacy video games have crafted over more than 40 years?</p>\n","date":"2013-01-31T00:00:00.000Z","timeToRead":6}},{"node":{"title":"Game Failings: de Blob 2","path":"/blog/2013/01/29/game-failings-de-blob-2/","excerpt":"<p><em>Game Failings is a series of features that checks out forgotten titles, looks at them with the benefit of hindsight and sees if there was anything special that just didn't catch on.</em></p>\n","date":"2013-01-29T00:00:00.000Z","timeToRead":3}},{"node":{"title":"Game Failings: Matt Hazard","path":"/blog/2013/01/23/game-failings-matt-hazard/","excerpt":"<p><em>Good games get remembered, but titles that get the lower scores or are instantly forgotten after release. Game Failings checks out forgotten titles, looks at them with the benefit of hindsight and sees if there was anything special that just didn't catch on.</em></p>\n","date":"2013-01-23T00:00:00.000Z","timeToRead":3}},{"node":{"title":"Violence and the ESRB classification system","path":"/blog/2013/01/18/violence-and-the-esrb-classification-system/","excerpt":"<p>With the discussion of violence in media and it's reflections on peoples actions increasing, a topic that is bound to get more attention is the ESRB classification system. I have a few thoughts on this topic that I'd like to share with my 33 intimate followers here on MyIGN!</p>\n","date":"2013-01-18T00:00:00.000Z","timeToRead":2}},{"node":{"title":"Video: End Region Locking? Cause Piracy!","path":"/blog/2013/01/02/video-end-region-locking-cause-piracy/","excerpt":"<p>A little video discussing Nintendo's stance on Region Locking and how it relates to piracy:</p>\n","date":"2013-01-02T00:00:00.000Z","timeToRead":1}},{"node":{"title":"Finishing Games","path":"/blog/2012/12/13/finishing-games/","excerpt":"<p>How many games do you play through to the credit roll? In this little MyIGN bit I'll be taking a look and some titles from this Generation that I played for many hours but just didn't make it to the endgame. I'll be explaining and trying to justify why these games, for whatever reason, didn't pull me through to the credits.</p>\n","date":"2012-12-13T00:00:00.000Z","timeToRead":4}},{"node":{"title":"Windows RT with Xbox","path":"/blog/2012/11/06/windows-rt-with-xbox/","excerpt":"<p>There has been a recent buzz stating the Microsoft is prepping a tablet device with Xbox functionality. It's currently unknown if such a device would be an Xbox 360 compatible device, or just a gaming focused tablet using Xbox branding. I have long been pondering how such a device would be crafted. I've written down my unedited thoughts covering the technological side of such an implementation, divided up into four points:</p>\n","date":"2012-11-06T00:00:00.000Z","timeToRead":4}},{"node":{"title":"People Promotion in a faceless world","path":"/blog/2012/10/01/people-promotion-in-a-faceless-world/","excerpt":"<p>People are a powerful promotional tool.</p>\n","date":"2012-10-01T00:00:00.000Z","timeToRead":8}},{"node":{"title":"With Hindsight 1.2: PSP Hardware","path":"/blog/2012/06/17/with-hindsight-1-2-psp-hardware/","excerpt":"<p>In this second part of the With Hindsight look at the PSP the systems hardware will be examined</p>\n","date":"2012-06-17T00:00:00.000Z","timeToRead":8}},{"node":{"title":"With Hindsight 1.1: PSP","path":"/blog/2012/06/17/with-hindsight-1-1-psp/","excerpt":"<p><em>Welcome to the very first ‘With Hindsight' article. This will be a regular series where we look back at gaming releases from this quickly fading generation and seeing how they hold up with the benefit of hindsight.</em></p>\n","date":"2012-06-17T00:00:00.000Z","timeToRead":2}},{"node":{"title":"To the fourth power: The Next Generation","path":"/blog/2012/06/17/to-the-fourth-power-the-next-generation/","excerpt":"<p>As the next generation of hardware approaches, the estimates of what the hardware will consist of are starting to brew.</p>\n","date":"2012-06-17T00:00:00.000Z","timeToRead":5}},{"node":{"title":"SAVE IGN's Girlfight Podcast","path":"/blog/2011/08/12/save-ign-s-girlfight-podcast/","excerpt":"<p><a href=\"/media/images/blog/girlfight.gif\"></a></p>\n","date":"2011-08-12T00:00:00.000Z","timeToRead":1}},{"node":{"title":"Operation Rainfall: Get around region locking, play Xenoblade this August","path":"/blog/2011/07/13/operation-rainfall-get-around-region-locking-play-xenoblade-this-august/","excerpt":"<p>Hi everyone, this is my first blog on MyIGN. I've had an account here on IGN since 2003 and have been a long time lurker. This is a brief article I wrote up about something that I'm sure many people will find interesting. Enjoy! Please leave any comments or questions, I'll get back to them all. Promise!</p>\n","date":"2011-07-13T00:00:00.000Z","timeToRead":6}}]}},"context":{}}