{"hash":"8b7b29d6ed65b9566d8cff4c4587de2216acfaa7","data":{"posts":{"totalCount":119,"pageInfo":{"totalPages":10,"currentPage":3,"isFirst":false,"isLast":false},"edges":[{"node":{"title":"Trying out video: Life Update","image":"","path":"/blog/2021/05/02/trying-out-video-life-update/","excerpt":"<p>Well, rather than writing I opted for a video update this time. 4 minutes of it!</p>\n","date":"2021-05-02T00:00:00.000Z","timeToRead":1}},{"node":{"title":"Rate My Tinder Profile","image":"/media/images/blog/aboutaaron.jpg","path":"/blog/2021/04/24/rate-my-tinder-profile/","excerpt":"<p>I am still sick.</p>\n","date":"2021-04-24T00:00:00.000Z","timeToRead":3}},{"node":{"title":"I got Tonsillitis","image":"","path":"/blog/2021/04/21/i-got-tonsillitis/","excerpt":"<p>I came back from training in Auckland last week feeling awful - sweaty, sore, weak and disoriented. It had been slowly escalating during the week, but after my flight back it was destroying me.</p>\n","date":"2021-04-21T00:00:00.000Z","timeToRead":1}},{"node":{"title":"Uninteresting","image":"/media/images/blog/belts.jpg","path":"/blog/2021/04/15/uninteresting/","excerpt":"<p>Well, training here is going well! It's intimidating to understand a big and complicated machine, but the boss man Karl ensures us it's not as bad as it looks. It's all sensors and belts and mechanicalness.</p>\n","date":"2021-04-15T00:00:00.000Z","timeToRead":3}},{"node":{"title":"Cookies","image":"/media/images/blog/cookies1.jpg","path":"/blog/2021/04/11/cookies/","excerpt":"<p>Eat your heart out, Toffee Pops.</p>\n","date":"2021-04-11T00:00:00.000Z","timeToRead":3}},{"node":{"title":"Can you feel life tangle you up inside","image":"/media/images/blog/gin.jpg","path":"/blog/2021/04/10/can-you-feel-life-tangle-you-up-inside/","excerpt":"<p>I’m good!</p>\n","date":"2021-04-10T00:00:00.000Z","timeToRead":3}},{"node":{"title":"Tell me the song and I'll sing it","image":"/media/images/blog/uncle.jpg","path":"/blog/2021/04/04/tell-me-the-song-and-i-ll-sing-it/","excerpt":"<h3>Well, that was helpful.</h3>\n","date":"2021-04-04T00:00:00.000Z","timeToRead":2}},{"node":{"title":"And I am feeling so small","image":"/media/images/blog/dadflit.jpg","path":"/blog/2021/04/03/and-i-am-feeling-so-small/","excerpt":"<p>It's an odd dichotomy.</p>\n","date":"2021-04-03T00:00:00.000Z","timeToRead":3}},{"node":{"title":"About me.","image":"/media/images/blog/travel.png","path":"/blog/2019/10/19/about-me/","excerpt":"<p>This is not your usual About Me page, but I’m sharing here five things about me that aren’t very common knowledge. These include things I’m not very comfortable publishing, but I’m hoping getting them out there will, in some strange way, take a small bit of the load off me.</p>\n","date":"2019-10-19T00:00:00.000Z","timeToRead":3}},{"node":{"title":"Printer Troubleshooting","image":"/media/images/blog/spoilers.jpg","path":"/blog/2019/09/26/printer-troubleshooting/","excerpt":"<p>I was recently contacted to help an elderly person in my small town get his printer working. The printer was consistently printing poorly, with text coming out very blurry and smudged.</p>\n","date":"2019-09-26T00:00:00.000Z","timeToRead":2}},{"node":{"title":"Chrome App Mode: webapps with elegance","image":"/media/images/blog/portableshortcut.png","path":"/blog/2019/09/23/chrome-app-mode-webapps-with-elegance/","excerpt":"<p>Browser-based apps have progressed a lot since the laggy and unresponsive experience that Google Docs was when it launched over a decade ago. Thanks to the power of HTML5, tasks from office suites to video editing now perform well enough that the browser can be a viable app platform for daily use.</p>\n","date":"2019-09-23T00:00:00.000Z","timeToRead":3}},{"node":{"title":"IT: Getting an old Windows machine running","image":"/media/images/blog/nemesis.png","path":"/blog/2019/09/22/it-getting-an-old-windows-machine-running/","excerpt":"<p>After throwing my friend Mark a surprise birthday party yesterday, I was given the task of getting a decade old Windows machine working and running Windows 10. I was given a Windows 7 Ultimate N key and this computer - a four hard drive behemoth - and set to work.</p>\n","date":"2019-09-22T00:00:00.000Z","timeToRead":4}}]}},"context":{}}