{"hash":"8dffa5455174f7fa2b721d088571534151a5fa46","data":{"posts":{"totalCount":107,"pageInfo":{"totalPages":6,"currentPage":1,"isFirst":true,"isLast":false},"edges":[{"node":{"title":"This is me learning","path":"/blog/2021/07/16/this-is-me-learning/","excerpt":"<p>I know most people see this on Facebook and what not, but I like putting it here. It's more organized!</p>\n","date":"2021-07-16T00:00:00.000Z","timeToRead":1}},{"node":{"title":"Check your emails","path":"/blog/2021/07/14/check-your-emails/","excerpt":"<p>Well, that was fun. I got up bright and early for a job in sunny (cold) Otaki. I was sitting in the car for 20 minutes, waiting for my security escort to show up before I went to my phone to figure out why it was so late.</p>\n","date":"2021-07-14T00:00:00.000Z","timeToRead":1}},{"node":{"title":"Logistics","path":"/blog/2021/07/13/logistics/","excerpt":"<p>Today was Tuesday. I'm striving to just write about my days more often here, at least when work allows me to. I really don't think anyone will be that interested in it! It's more of a journal - but putting it out here for the world to see is a good way to keep me accountable.</p>\n","date":"2021-07-13T00:00:00.000Z","timeToRead":2}},{"node":{"title":"When I get that feeling","path":"/blog/2021/07/12/when-i-get-that-feeling/","excerpt":"<p>It's been a little slow at work these past few weeks. I've had a few early starts, but other than that I've generally been home by about 7pm. It's unsettling! When work gets intense I can be out until close to midnight, but when there are no urgent calls coming in I just sit around at home… waiting.</p>\n","date":"2021-07-12T00:00:00.000Z","timeToRead":2}},{"node":{"title":"Turns out? I'm not an asshole","path":"/blog/2021/07/11/turns-out-i-m-not-an-asshole/","excerpt":"<p>Shit I’m old. I turned a grand age of 34 on Monday. But let’s not panic, I’m not frail and fatigued yet!</p>\n","date":"2021-07-11T00:00:00.000Z","timeToRead":3}},{"node":{"title":"Lament","path":"/blog/2021/07/03/lament/","excerpt":"<h3>Breaking news</h3>\n<p>A 2011 Mazda Demio is for sale.</p>\n","date":"2021-07-03T00:00:00.000Z","timeToRead":3}},{"node":{"title":"It's a game of give and take","path":"/blog/2021/06/26/it-s-a-game-of-give-and-take/","excerpt":"<p>My first day off in about three weeks? I slept a lot!</p>\n","date":"2021-06-26T00:00:00.000Z","timeToRead":2}},{"node":{"title":"You Can Never Know What It's Like","path":"/blog/2021/06/24/you-can-never-know-what-it-s-like/","excerpt":"<p>It’s never two years.</p>\n","date":"2021-06-24T00:00:00.000Z","timeToRead":2}},{"node":{"title":"Anxiety","path":"/blog/2021/06/08/anxiety/","excerpt":"<h3>Do you get anxious?</h3>\n","date":"2021-06-08T00:00:00.000Z","timeToRead":3}},{"node":{"title":"Staging","path":"/blog/2021/05/25/staging/","excerpt":"<p>What a fun start to the week.</p>\n","date":"2021-05-25T00:00:00.000Z","timeToRead":3}},{"node":{"title":"The appalling state of Caramel in this country","path":"/blog/2021/05/23/the-appalling-state-of-caramel-in-this-country/","excerpt":"<p>As some of you may already know, I have a vendetta: The quality of caramel slices in this country is appalling.</p>\n","date":"2021-05-23T00:00:00.000Z","timeToRead":2}},{"node":{"title":"My Mother, My Mother and Me","path":"/blog/2021/05/09/my-mother-my-mother-and-me/","excerpt":"<p>Well, that was one hell of a week. My work days were long hours, but it was, frustratingly, a lot of waiting around. Oddly, I’d rather be working hard for 14 hours than trying to sort out scheduling and logistics.</p>\n","date":"2021-05-09T00:00:00.000Z","timeToRead":4}},{"node":{"title":"Trying out video: Life Update","path":"/blog/2021/05/02/trying-out-video-life-update/","excerpt":"<p>Well, rather than writing I opted for a video update this time. 4 minutes of it!</p>\n","date":"2021-05-02T00:00:00.000Z","timeToRead":1}},{"node":{"title":"Rate My Tinder Profile","path":"/blog/2021/04/24/rate-my-tinder-profile/","excerpt":"<p>I am still sick.</p>\n","date":"2021-04-24T00:00:00.000Z","timeToRead":3}},{"node":{"title":"I got Tonsillitis","path":"/blog/2021/04/21/i-got-tonsillitis/","excerpt":"<p>I came back from training in Auckland last week feeling awful - sweaty, sore, weak and disoriented. It had been slowly escalating during the week, but after my flight back it was destroying me.</p>\n","date":"2021-04-21T00:00:00.000Z","timeToRead":1}},{"node":{"title":"Uninteresting","path":"/blog/2021/04/15/uninteresting/","excerpt":"<p>Well, training here is going well! It's intimidating to understand a big and complicated machine, but the boss man Karl ensures us it's not as bad as it looks. It's all sensors and belts and mechanicalness.</p>\n","date":"2021-04-15T00:00:00.000Z","timeToRead":3}},{"node":{"title":"Cookies","path":"/blog/2021/04/11/cookies/","excerpt":"<p>Eat your heart out, Toffee Pops.</p>\n","date":"2021-04-11T00:00:00.000Z","timeToRead":3}},{"node":{"title":"Can you feel life tangle you up inside","path":"/blog/2021/04/10/can-you-feel-life-tangle-you-up-inside/","excerpt":"<p>I’m good!</p>\n","date":"2021-04-10T00:00:00.000Z","timeToRead":3}},{"node":{"title":"Tell me the song and I'll sing it","path":"/blog/2021/04/04/tell-me-the-song-and-i-ll-sing-it/","excerpt":"<h3>Well, that was helpful.</h3>\n","date":"2021-04-04T00:00:00.000Z","timeToRead":2}},{"node":{"title":"And I am feeling so small","path":"/blog/2021/04/03/and-i-am-feeling-so-small/","excerpt":"<p>It's an odd dichotomy.</p>\n","date":"2021-04-03T00:00:00.000Z","timeToRead":3}}]}},"context":{}}