{"hash":"8dffa5455174f7fa2b721d088571534151a5fa46","data":{"posts":{"totalCount":117,"pageInfo":{"totalPages":6,"currentPage":2,"isFirst":false,"isLast":false},"edges":[{"node":{"title":"The appalling state of Caramel in this country","path":"/blog/2021/05/23/the-appalling-state-of-caramel-in-this-country/","excerpt":"<p>As some of you may already know, I have a vendetta: The quality of caramel slices in this country is appalling.</p>\n","date":"2021-05-23T00:00:00.000Z","timeToRead":2}},{"node":{"title":"My Mother, My Mother and Me","path":"/blog/2021/05/09/my-mother-my-mother-and-me/","excerpt":"<p>Well, that was one hell of a week. My work days were long hours, but it was, frustratingly, a lot of waiting around. Oddly, I’d rather be working hard for 14 hours than trying to sort out scheduling and logistics.</p>\n","date":"2021-05-09T00:00:00.000Z","timeToRead":4}},{"node":{"title":"Trying out video: Life Update","path":"/blog/2021/05/02/trying-out-video-life-update/","excerpt":"<p>Well, rather than writing I opted for a video update this time. 4 minutes of it!</p>\n","date":"2021-05-02T00:00:00.000Z","timeToRead":1}},{"node":{"title":"Rate My Tinder Profile","path":"/blog/2021/04/24/rate-my-tinder-profile/","excerpt":"<p>I am still sick.</p>\n","date":"2021-04-24T00:00:00.000Z","timeToRead":3}},{"node":{"title":"I got Tonsillitis","path":"/blog/2021/04/21/i-got-tonsillitis/","excerpt":"<p>I came back from training in Auckland last week feeling awful - sweaty, sore, weak and disoriented. It had been slowly escalating during the week, but after my flight back it was destroying me.</p>\n","date":"2021-04-21T00:00:00.000Z","timeToRead":1}},{"node":{"title":"Uninteresting","path":"/blog/2021/04/15/uninteresting/","excerpt":"<p>Well, training here is going well! It's intimidating to understand a big and complicated machine, but the boss man Karl ensures us it's not as bad as it looks. It's all sensors and belts and mechanicalness.</p>\n","date":"2021-04-15T00:00:00.000Z","timeToRead":3}},{"node":{"title":"Cookies","path":"/blog/2021/04/11/cookies/","excerpt":"<p>Eat your heart out, Toffee Pops.</p>\n","date":"2021-04-11T00:00:00.000Z","timeToRead":3}},{"node":{"title":"Can you feel life tangle you up inside","path":"/blog/2021/04/10/can-you-feel-life-tangle-you-up-inside/","excerpt":"<p>I’m good!</p>\n","date":"2021-04-10T00:00:00.000Z","timeToRead":3}},{"node":{"title":"Tell me the song and I'll sing it","path":"/blog/2021/04/04/tell-me-the-song-and-i-ll-sing-it/","excerpt":"<h3>Well, that was helpful.</h3>\n","date":"2021-04-04T00:00:00.000Z","timeToRead":2}},{"node":{"title":"And I am feeling so small","path":"/blog/2021/04/03/and-i-am-feeling-so-small/","excerpt":"<p>It's an odd dichotomy.</p>\n","date":"2021-04-03T00:00:00.000Z","timeToRead":3}},{"node":{"title":"About me.","path":"/blog/2019/10/19/about-me/","excerpt":"<p>This is not your usual About Me page, but I’m sharing here five things about me that aren’t very common knowledge. These include things I’m not very comfortable publishing, but I’m hoping getting them out there will, in some strange way, take a small bit of the load off me.</p>\n","date":"2019-10-19T00:00:00.000Z","timeToRead":3}},{"node":{"title":"Printer Troubleshooting","path":"/blog/2019/09/26/printer-troubleshooting/","excerpt":"<p>I was recently contacted to help an elderly person in my small town get his printer working. The printer was consistently printing poorly, with text coming out very blurry and smudged.</p>\n","date":"2019-09-26T00:00:00.000Z","timeToRead":2}},{"node":{"title":"Chrome App Mode: webapps with elegance","path":"/blog/2019/09/23/chrome-app-mode-webapps-with-elegance/","excerpt":"<p>Browser-based apps have progressed a lot since the laggy and unresponsive experience that Google Docs was when it launched over a decade ago. Thanks to the power of HTML5, tasks from office suites to video editing now perform well enough that the browser can be a viable app platform for daily use.</p>\n","date":"2019-09-23T00:00:00.000Z","timeToRead":3}},{"node":{"title":"IT: Getting an old Windows machine running","path":"/blog/2019/09/22/it-getting-an-old-windows-machine-running/","excerpt":"<p>After throwing my friend Mark a surprise birthday party yesterday, I was given the task of getting a decade old Windows machine working and running Windows 10. I was given a Windows 7 Ultimate N key and this computer - a four hard drive behemoth - and set to work.</p>\n","date":"2019-09-22T00:00:00.000Z","timeToRead":4}},{"node":{"title":"Pearson Vue, Microsoft and Upskilling","path":"/blog/2019/09/05/pearson-vue-microsoft-and-upskilling/","excerpt":"<p>On my quest to upskill, I decided to take exams online to gain some Microsoft certified qualifications. Starting at the beginning, I opted for <strong><a href=\"https://www.microsoft.com/en-us/learning/exam-ms-900.aspx\">MS-900: Microsoft 365 Certified Fundamentals.</a></strong> I signed up to take the exam with the online provider <strong><a href=\"https://home.pearsonvue.com/\">Pearson Vue</a></strong> at 9pm this Thursday night, and spent the last few days doing not much else other than studying. These exams are not free: $184 in local (NZ) currency. It might not seem like much, but money is tight for me right now.</p>\n","date":"2019-09-05T00:00:00.000Z","timeToRead":3}},{"node":{"title":"Information on Veon 4K TV's","path":"/blog/2019/08/02/information-on-veon-4-k-tv-s/","excerpt":"<p>Since restarting my blogging venture last year the post that I've received the most feedback on <a href=\"/blog/2018/11/28/veon-4-k-tv-review\">was my budget Veon TV review.</a> I still get emails nearly a year later with people asking questions while they're looking into buying one, or wanting help with different settings and features. There is very little information on these TV's available online, <a href=\"https://www.thewarehouse.co.nz/\">The Warehouse</a> doesn't  provide any documentation and there are very few professional reviews available.</p>\n","date":"2019-08-02T00:00:00.000Z","timeToRead":8}},{"node":{"title":"It doesn't go away, it changes","path":"/blog/2019/07/24/it-doesn-t-go-away-it-changes/","excerpt":"<h3>It's odd</h3>\n","date":"2019-07-24T00:00:00.000Z","timeToRead":3}},{"node":{"title":"Good Deals 2019","path":"/blog/2019/07/14/good-deals-2019/","excerpt":"<p>This chain of events started off on one of those long nights I was spending at the care home, staying up all night next to my Dad during his final weeks. I couldn't watch TV or play any kind of sound, nor did I want to put headphones on. I was there for Dad, and wanted to be alert. I sat there browsing my phone, mainly as a way to keep distracted from the gravity of his situation.</p>\n","date":"2019-07-14T00:00:00.000Z","timeToRead":5}},{"node":{"title":"Party like it's","path":"/blog/2019/07/07/party-like-it-s/","excerpt":"<p>Right now it's 2:30 am on Saturday morning and I just can't sleep...</p>\n","date":"2019-07-07T00:00:00.000Z","timeToRead":3}},{"node":{"title":"Dying Changes Everything","path":"/blog/2019/06/30/dying-changes-everything/","excerpt":"<h3>Ebbs and flows.</h3>\n","date":"2019-06-30T00:00:00.000Z","timeToRead":3}}]}},"context":{}}