{"hash":"8dffa5455174f7fa2b721d088571534151a5fa46","data":{"posts":{"totalCount":110,"pageInfo":{"totalPages":10,"currentPage":10,"isFirst":false,"isLast":true},"edges":[{"node":{"title":"SAVE IGN's Girlfight Podcast","image":"/media/images/blog/girlfight.gif","path":"/blog/2011/08/12/save-ign-s-girlfight-podcast/","excerpt":"<p><a href=\"/media/images/blog/girlfight.gif\"></a></p>\n","date":"2011-08-12T00:00:00.000Z","timeToRead":1}},{"node":{"title":"Operation Rainfall: Get around region locking, play Xenoblade this August","image":"/media/images/blog/SmashNoCusLevel.jpg","path":"/blog/2011/07/13/operation-rainfall-get-around-region-locking-play-xenoblade-this-august/","excerpt":"<p>Hi everyone, this is my first blog on MyIGN. I've had an account here on IGN since 2003 and have been a long time lurker. This is a brief article I wrote up about something that I'm sure many people will find interesting. Enjoy! Please leave any comments or questions, I'll get back to them all. Promise!</p>\n","date":"2011-07-13T00:00:00.000Z","timeToRead":6}}]}},"context":{}}