{"hash":"8dffa5455174f7fa2b721d088571534151a5fa46","data":{"posts":{"totalCount":101,"pageInfo":{"totalPages":6,"currentPage":6,"isFirst":false,"isLast":true},"edges":[{"node":{"title":"Operation Rainfall: Get around region locking, play Xenoblade this August","path":"/blog/2011/07/13/operation-rainfall-get-around-region-locking-play-xenoblade-this-august/","excerpt":"<p>Hi everyone, this is my first blog on MyIGN. I've had an account here on IGN since 2003 and have been a long time lurker. This is a brief article I wrote up about something that I'm sure many people will find interesting. Enjoy! Please leave any comments or questions, I'll get back to them all. Promise!</p>\n","date":"2011-07-13T00:00:00.000Z","timeToRead":6}}]}},"context":{}}