{"hash":"8b7b29d6ed65b9566d8cff4c4587de2216acfaa7","data":{"posts":{"totalCount":121,"pageInfo":{"totalPages":11,"currentPage":1,"isFirst":true,"isLast":false},"edges":[{"node":{"title":"Vans","image":"/media/images/blog/whitetiger.jpg","path":"/blog/2022/09/25/vans/","excerpt":"<p>Ever had issues with your job? Of course you have!</p>\n","date":"2022-09-25T00:00:00.000Z","timeToRead":2}},{"node":{"title":"It's Tradition","image":"/media/images/blog/levin.jpg","path":"/blog/2022/04/17/it-s-tradition/","excerpt":"<p>Many years ago, it must be at least 10 now, my dad and I had a tradition. On the top tier public holidays, like Christmas Day or Good Friday, we would go for a walk through town to see what was going on when everything was closed. It was interesting to see the scarce handful of shops that were open, and the rare car that went through.</p>\n","date":"2022-04-17T00:00:00.000Z","timeToRead":2}},{"node":{"title":"House and Body Renovations.","image":"/media/images/blog/wall.jpg","path":"/blog/2022/01/15/house-and-body-renovations/","excerpt":"<p>My work is ramping up for a Global Fitness Challenge later this month. To quote the email:</p>\n","date":"2022-01-15T00:00:00.000Z","timeToRead":3}},{"node":{"title":"Intense!","image":"/media/images/blog/bomb.jpg","path":"/blog/2021/10/31/intense/","excerpt":"<p>Design skills? I have none.</p>\n","date":"2021-10-31T00:00:00.000Z","timeToRead":2}},{"node":{"title":"Art","image":"/media/images/blog/nook.jpg","path":"/blog/2021/10/03/art/","excerpt":"<p>Just a brief update today - talking about style!</p>\n","date":"2021-10-03T00:00:00.000Z","timeToRead":2}},{"node":{"title":"A Neurotypical Bed","image":"/media/images/blog/newbed.jpg","path":"/blog/2021/09/26/a-neurotypical-bed/","excerpt":"<p>After long shipping delays, it finally arrived.</p>\n","date":"2021-09-26T00:00:00.000Z","timeToRead":2}},{"node":{"title":"How are you? Coping Okay?","image":"/media/images/blog/haircut.jpg","path":"/blog/2021/09/05/how-are-you-coping-okay/","excerpt":"<p>I bet lockdown has been tough! You're either isolated, or stuck around the same people in the same building for most of the day. What have you done to help push you along, to keep on trucking along?</p>\n","date":"2021-09-05T00:00:00.000Z","timeToRead":2}},{"node":{"title":"Don't shit in my bed and tell me everything's ok.","image":"/media/images/blog/dogpoo.jpg","path":"/blog/2021/08/29/don-t-shit-in-my-bed-and-tell-me-everything-s-ok/","excerpt":"<h4>\"Are you doing ok?\"</h4>\n","date":"2021-08-29T00:00:00.000Z","timeToRead":3}},{"node":{"title":"One job a day. Oddly feeling tired.","image":"/media/images/blog/judge.jpg","path":"/blog/2021/08/21/one-job-a-day-oddly-feeling-tired/","excerpt":"<p>Well, since the start of lockdown I have averaged one job a day. During level 4 my work has called off all but priority one urgent jobs, meaning my epic 14 hour days just can’t be done right now. So it’s been closer to 2 hours a day.</p>\n","date":"2021-08-21T00:00:00.000Z","timeToRead":3}},{"node":{"title":"Blue Cheese! An all time high.","image":"/media/images/blog/smallcheese.jpg","path":"/blog/2021/08/17/blue-cheese-an-all-time-high/","excerpt":"<p>Well, this was interesting.</p>\n","date":"2021-08-17T00:00:00.000Z","timeToRead":3}},{"node":{"title":"Gaining Perspective","image":"/media/images/blog/forza.jpg","path":"/blog/2021/08/07/gaining-perspective/","excerpt":"<p>Ideas on how to be a better person: imagine yourself in the third person.</p>\n","date":"2021-08-07T00:00:00.000Z","timeToRead":2}},{"node":{"title":"Asperger's syndrome. AKA Ass Burgers","image":"/media/images/blog/young.jpg","path":"/blog/2021/07/21/asperger-s-syndrome-aka-ass-burgers/","excerpt":"<p>I put the word out last week asking for topics that you’d like to see me cover. I got a suggestion I didn't expect: Asperger's syndrome.</p>\n","date":"2021-07-21T00:00:00.000Z","timeToRead":7}}]}},"context":{}}